<?xml version="1.0" encoding="utf-8"?>
<!-- Generator: Adobe Illustrator 19.1.0, SVG Export Plug-In . SVG Version: 6.00 Build 0)  -->
<svg version="1.1" id="Layer_1" xmlns="http://www.w3.org/2000/svg" xmlns:xlink="http://www.w3.org/1999/xlink" x="0px" y="0px"
	 viewBox="0 0 64 64" style="enable-background:new 0 0 64 64;" xml:space="preserve">
<style type="text/css">
	.st0{fill:#221F1F;}
	.st1{fill:#010101;}
	.st2{fill:#020202;}
	.st3{clip-path:url(#SVGID_2_);}
	.st4{clip-path:url(#SVGID_4_);}
	.st5{fill:#231F20;}
	.st6{fill:#FFFFFF;}
</style>
<g>
	<defs>
		<circle id="SVGID_1_" cx="111" cy="-187.4" r="2.2"/>
	</defs>
	<clipPath id="SVGID_2_">
		<use xlink:href="#SVGID_1_"  style="overflow:visible;"/>
	</clipPath>
	<g class="st3">
		<defs>
			<rect id="SVGID_3_" x="-635.6" y="-2140" width="2770.5" height="3300"/>
		</defs>
		<clipPath id="SVGID_4_">
			<use xlink:href="#SVGID_3_"  style="overflow:visible;"/>
		</clipPath>
	</g>
</g>
<path class="st2" d="M46.1,29.8H34V17.7c0-1.1-0.9-2-2-2s-2,0.9-2,2v12.2H17.9c-1.1,0-2,0.9-2,2s0.9,2,2,2H30V46c0,1.1,0.9,2,2,2
	s2-0.9,2-2V33.8h12.1c1.1,0,2-0.9,2-2S47.2,29.8,46.1,29.8z"/>
<g>
	<path d="M32,6.7c13.8,0,25,11.3,25,25.2S45.8,57,32,57S7,45.7,7,31.8S18.2,6.7,32,6.7 M32,2.7C16,2.7,3,15.8,3,31.8S16,61,32,61
		s29-13.1,29-29.2S48,2.7,32,2.7L32,2.7z"/>
</g>
</svg>
