<?xml version="1.0" encoding="utf-8"?>
<!-- Generator: Adobe Illustrator 19.1.0, SVG Export Plug-In . SVG Version: 6.00 Build 0)  -->
<svg version="1.1" id="Layer_1" xmlns="http://www.w3.org/2000/svg" xmlns:xlink="http://www.w3.org/1999/xlink" x="0px" y="0px"
	 viewBox="0 0 64 64" style="enable-background:new 0 0 64 64;" xml:space="preserve">
<style type="text/css">
	.st0{fill:#010101;}
	.st1{fill:#020202;}
	.st2{clip-path:url(#SVGID_2_);}
	.st3{clip-path:url(#SVGID_4_);}
</style>
<g>
	<defs>
		<circle id="SVGID_1_" cx="-47" cy="128.6" r="2.2"/>
	</defs>
	<clipPath id="SVGID_2_">
		<use xlink:href="#SVGID_1_"  style="overflow:visible;"/>
	</clipPath>
	<g class="st2">
		<defs>
			<rect id="SVGID_3_" x="-793.6" y="-1824" width="2770.5" height="3300"/>
		</defs>
		<clipPath id="SVGID_4_">
			<use xlink:href="#SVGID_3_"  style="overflow:visible;"/>
		</clipPath>
	</g>
</g>
<path class="st0" d="M60.4,43.6c-0.8-0.8-2-0.8-2.8,0l-5.1,5.1V21c0-1.1-0.9-2-2-2s-2,0.9-2,2v27.6l-5.1-5.1c-0.8-0.8-2-0.8-2.8,0
	s-0.8,2,0,2.8l8.5,8.5c0.4,0.4,0.9,0.6,1.4,0.6s1-0.2,1.4-0.6l8.5-8.5C61.2,45.6,61.2,44.4,60.4,43.6z"/>
<g>
	<path d="M26.1,47H5c-1.1,0-2-0.9-2-2s0.9-2,2-2h21c1.1,0,2,0.9,2,2S27.2,47,26.1,47z"/>
</g>
<g>
	<path d="M38,29.8H5c-1.1,0-2-0.9-2-2s0.9-2,2-2h33c1.1,0,2,0.9,2,2S39.1,29.8,38,29.8z"/>
</g>
<g>
	<path d="M50.5,12.5H5c-1.1,0-2-0.9-2-2s0.9-2,2-2h45.5c1.1,0,2,0.9,2,2S51.6,12.5,50.5,12.5z"/>
</g>
</svg>
