<?xml version="1.0" encoding="utf-8"?>
<!-- Generator: Adobe Illustrator 19.1.0, SVG Export Plug-In . SVG Version: 6.00 Build 0)  -->
<svg version="1.1" id="Layer_1" xmlns="http://www.w3.org/2000/svg" xmlns:xlink="http://www.w3.org/1999/xlink" x="0px" y="0px"
	 viewBox="0 0 64 64" style="enable-background:new 0 0 64 64;" xml:space="preserve">
<style type="text/css">
	.st0{fill:#231F20;}
	.st1{fill:#221F1F;}
	.st2{fill:#010101;}
	.st3{fill:#020202;}
	.st4{fill:#FFFFFF;}
</style>
<circle class="st0" cx="32" cy="49.6" r="2.2"/>
<g>
	<g>
		<path d="M32,7l25,50H7L32,7 M32,3c-1.5,0-2.9,0.9-3.6,2.2l-25,50c-0.6,1.2-0.6,2.7,0.2,3.9C4.3,60.3,5.6,61,7,61h50
			c1.4,0,2.7-0.7,3.4-1.9c0.7-1.2,0.8-2.7,0.2-3.9l-25-50C34.9,3.9,33.5,3,32,3L32,3z"/>
	</g>
</g>
<g>
	<path d="M32,44.6c-1.1,0-2-0.9-2-2v-20c0-1.1,0.9-2,2-2s2,0.9,2,2v20C34,43.7,33.1,44.6,32,44.6z"/>
</g>
</svg>
