<?xml version="1.0" encoding="utf-8"?>
<!-- Generator: Adobe Illustrator 19.1.0, SVG Export Plug-In . SVG Version: 6.00 Build 0)  -->
<svg version="1.1" id="Layer_1" xmlns="http://www.w3.org/2000/svg" xmlns:xlink="http://www.w3.org/1999/xlink" x="0px" y="0px"
	 viewBox="0 0 64 64" style="enable-background:new 0 0 64 64;" xml:space="preserve">
<style type="text/css">
	.st0{fill:#010101;}
	.st1{fill:#020202;}
	.st2{clip-path:url(#SVGID_2_);}
	.st3{clip-path:url(#SVGID_4_);}
	.st4{clip-path:url(#SVGID_6_);}
	.st5{clip-path:url(#SVGID_8_);}
	.st6{clip-path:url(#SVGID_10_);}
	.st7{clip-path:url(#SVGID_12_);}
	.st8{clip-path:url(#SVGID_14_);}
	.st9{clip-path:url(#SVGID_16_);}
</style>
<g>
	<defs>
		<circle id="SVGID_1_" cx="32" cy="-29.4" r="2.2"/>
	</defs>
	<clipPath id="SVGID_2_">
		<use xlink:href="#SVGID_1_"  style="overflow:visible;"/>
	</clipPath>
	<g class="st2">
		<defs>
			<rect id="SVGID_3_" x="-714.6" y="-1982" width="2770.5" height="3300"/>
		</defs>
		<clipPath id="SVGID_4_">
			<use xlink:href="#SVGID_3_"  style="overflow:visible;"/>
		</clipPath>
	</g>
</g>
<g>
	<path class="st0" d="M57,7v42.5V57c0,0-2-4.3-5.7-6.3c-2.2-1.1-5.9-1.3-7.4-1.3c-0.4,0-0.6,0-0.6,0H7V7H57 M57,3H7C4.8,3,3,4.8,3,7
		v42.5c0,2.2,1.8,4,4,4h36.4c0,0,0.1,0,0.1,0c0,0,0.2,0,0.4,0c2.8,0,4.8,0.4,5.5,0.8c2.1,1.1,3.6,3.7,3.9,4.4C54,60.1,55.5,61,57,61
		c0.3,0,0.6,0,0.9-0.1c1.8-0.4,3.1-2,3.1-3.9v-7.5V7C61,4.8,59.2,3,57,3L57,3z"/>
</g>
<g>
	<path class="st0" d="M45.5,24h-27c-1.1,0-2-0.9-2-2s0.9-2,2-2h27c1.1,0,2,0.9,2,2S46.6,24,45.5,24z"/>
</g>
<g>
	<path class="st0" d="M45.5,36h-27c-1.1,0-2-0.9-2-2s0.9-2,2-2h27c1.1,0,2,0.9,2,2S46.6,36,45.5,36z"/>
</g>
<g>
	<defs>
		<circle id="SVGID_5_" cx="-47" cy="-29.5" r="2.8"/>
	</defs>
	<clipPath id="SVGID_6_">
		<use xlink:href="#SVGID_5_"  style="overflow:visible;"/>
	</clipPath>
	<g class="st4">
		<defs>
			<rect id="SVGID_7_" x="-959.6" y="-2416" width="3386.5" height="4033.3"/>
		</defs>
		<clipPath id="SVGID_8_">
			<use xlink:href="#SVGID_7_"  style="overflow:visible;"/>
		</clipPath>
	</g>
</g>
<g>
	<g>
		<defs>
			<circle id="SVGID_9_" cx="-47" cy="680.6" r="2.8"/>
		</defs>
		<clipPath id="SVGID_10_">
			<use xlink:href="#SVGID_9_"  style="overflow:visible;"/>
		</clipPath>
		<g class="st6">
			<defs>
				<rect id="SVGID_11_" x="-959.6" y="-1705.9" width="3386.5" height="4033.3"/>
			</defs>
			<clipPath id="SVGID_12_">
				<use xlink:href="#SVGID_11_"  style="overflow:visible;"/>
			</clipPath>
		</g>
	</g>
</g>
<g>
	<defs>
		<circle id="SVGID_13_" cx="32" cy="680.6" r="2.2"/>
	</defs>
	<clipPath id="SVGID_14_">
		<use xlink:href="#SVGID_13_"  style="overflow:visible;"/>
	</clipPath>
	<g class="st8">
		<defs>
			<rect id="SVGID_15_" x="-714.6" y="-1271.8" width="2770.5" height="3299.7"/>
		</defs>
		<clipPath id="SVGID_16_">
			<use xlink:href="#SVGID_15_"  style="overflow:visible;"/>
		</clipPath>
	</g>
</g>
</svg>
