<?xml version="1.0" encoding="utf-8"?>
<!-- Generator: Adobe Illustrator 19.1.0, SVG Export Plug-In . SVG Version: 6.00 Build 0)  -->
<svg version="1.1" id="Layer_1" xmlns="http://www.w3.org/2000/svg" xmlns:xlink="http://www.w3.org/1999/xlink" x="0px" y="0px"
	 viewBox="0 0 64 64" style="enable-background:new 0 0 64 64;" xml:space="preserve">
<style type="text/css">
	.st0{fill:#221F1F;}
	.st1{fill:#010101;}
	.st2{fill:#020202;}
	.st3{clip-path:url(#SVGID_2_);}
	.st4{clip-path:url(#SVGID_4_);}
	.st5{fill:#231F20;}
	.st6{fill:#FFFFFF;}
</style>
<g>
	<defs>
		<circle id="SVGID_1_" cx="269" cy="-108.4" r="2.2"/>
	</defs>
	<clipPath id="SVGID_2_">
		<use xlink:href="#SVGID_1_"  style="overflow:visible;"/>
	</clipPath>
	<g class="st3">
		<defs>
			<rect id="SVGID_3_" x="-477.6" y="-2061" width="2770.5" height="3300"/>
		</defs>
		<clipPath id="SVGID_4_">
			<use xlink:href="#SVGID_3_"  style="overflow:visible;"/>
		</clipPath>
	</g>
</g>
<path class="st1" d="M49.9,5.5H34v-1c0-1.1-0.9-2-2-2s-2,0.9-2,2v1H14.1C11.3,5.5,9,7.8,9,10.6v0.7c0,2.1,1.2,3.8,3,4.7v43
	c0,1.1,0.9,2,2,2h36c1.1,0,2-0.9,2-2V16c1.8-0.8,3-2.6,3-4.7v-0.7C55,7.8,52.7,5.5,49.9,5.5z M13,10.6c0-0.6,0.5-1.1,1.1-1.1h35.7
	c0.6,0,1.1,0.5,1.1,1.1v0.7c0,0.6-0.5,1.1-1.1,1.1H14.1c-0.6,0-1.1-0.5-1.1-1.1V10.6z M16,57V16.5h32V57H16z"/>
<g>
	<path class="st1" d="M23,52c-1.1,0-2-0.9-2-2V24c0-1.1,0.9-2,2-2s2,0.9,2,2v26C25,51.1,24.1,52,23,52z"/>
</g>
<g>
	<path class="st1" d="M41,52c-1.1,0-2-0.9-2-2V24c0-1.1,0.9-2,2-2s2,0.9,2,2v26C43,51.1,42.1,52,41,52z"/>
</g>
<g>
	<path class="st1" d="M32,52c-1.1,0-2-0.9-2-2V24c0-1.1,0.9-2,2-2s2,0.9,2,2v26C34,51.1,33.1,52,32,52z"/>
</g>
</svg>
