<?xml version="1.0" encoding="utf-8"?>
<!-- Generator: Adobe Illustrator 19.2.1, SVG Export Plug-In . SVG Version: 6.00 Build 0)  -->
<svg version="1.1" id="Layer_1" xmlns="http://www.w3.org/2000/svg" xmlns:xlink="http://www.w3.org/1999/xlink" x="0px" y="0px"
	 viewBox="0 0 64 64" style="enable-background:new 0 0 64 64;" xml:space="preserve">
<style type="text/css">
	.st0{fill:#231F20;}
	.st1{fill:#010101;}
	.st2{fill:#020202;}
	.st3{fill:#221F1F;}
	.st4{display:none;}
	.st5{display:inline;}
	.st6{clip-path:url(#SVGID_2_);}
	.st7{clip-path:url(#SVGID_4_);}
	.st8{clip-path:url(#SVGID_6_);}
	.st9{clip-path:url(#SVGID_8_);}
	.st10{fill:none;stroke:#010101;stroke-width:4;stroke-linecap:round;stroke-linejoin:round;stroke-miterlimit:10;}
</style>
<g>
	<circle class="st1" cx="32" cy="18.4" r="2.2"/>
</g>
<g>
	<path d="M32,57.2C18.2,57.2,7,45.9,7,32C7,18.1,18.2,6.8,32,6.8S57,18.1,57,32C57,45.9,45.8,57.2,32,57.2 M32,61.2
		c16,0,29-13.1,29-29.2C61,15.9,48,2.8,32,2.8S3,15.9,3,32C3,48.1,16,61.2,32,61.2L32,61.2z"/>
</g>
<g>
	<path d="M32,24.9c1.1,0,2,0.9,2,2v19c0,1.1-0.9,2-2,2s-2-0.9-2-2v-19C30,25.8,30.9,24.9,32,24.9z"/>
</g>
</svg>
