<?xml version="1.0" encoding="utf-8"?>
<!-- Generator: Adobe Illustrator 19.2.1, SVG Export Plug-In . SVG Version: 6.00 Build 0)  -->
<svg version="1.1" id="Layer_1" xmlns="http://www.w3.org/2000/svg" xmlns:xlink="http://www.w3.org/1999/xlink" x="0px" y="0px"
	 viewBox="0 0 64 64" style="enable-background:new 0 0 64 64;" xml:space="preserve">
<style type="text/css">
	.st0{fill:#231F20;}
	.st1{fill:#010101;}
	.st2{fill:#020202;}
</style>
<path d="M59.1,39.8c-1-0.4-2.2,0.1-2.6,1.2C51.6,53.7,37,60.2,24,55.4c-6.3-2.4-11.4-7-14.1-13.1c-2.7-6-2.9-12.7-0.6-18.9
	C14.2,10.6,28.8,4.1,41.8,8.9c3.6,1.3,6.9,3.5,9.5,6.3l-7.9,0c0,0,0,0,0,0c-1.1,0-2,0.9-2,2s0.9,2,2,2l12.5,0c0,0,0,0,0,0
	c1.1,0,2-0.9,2-2l0-12.2c0-1.1-0.9-2-2-2c0,0,0,0,0,0c-1.1,0-2,0.9-2,2l0,7.1c-3-3.1-6.7-5.5-10.7-7C28.1-0.4,11.2,7.1,5.5,22
	c-2.7,7.2-2.5,15,0.7,21.9c3.2,7.1,9,12.5,16.4,15.2C26,60.4,29.4,61,32.8,61c11.8,0,23-7.1,27.4-18.7
	C60.6,41.3,60.1,40.2,59.1,39.8z"/>
</svg>
