<?xml version="1.0" encoding="utf-8"?>
<!-- Generator: Adobe Illustrator 19.1.0, SVG Export Plug-In . SVG Version: 6.00 Build 0)  -->
<svg version="1.1" id="Layer_1" xmlns="http://www.w3.org/2000/svg" xmlns:xlink="http://www.w3.org/1999/xlink" x="0px" y="0px"
	 viewBox="0 0 64 64" style="enable-background:new 0 0 64 64;" xml:space="preserve">
<style type="text/css">
	.st0{fill:#221F1F;}
	.st1{fill:#010101;}
	.st2{fill:#020202;}
	.st3{clip-path:url(#SVGID_2_);}
	.st4{clip-path:url(#SVGID_4_);}
	.st5{fill:#231F20;}
	.st6{fill:#FFFFFF;}
</style>
<g>
	<defs>
		<circle id="SVGID_1_" cx="190" cy="-187.4" r="2.2"/>
	</defs>
	<clipPath id="SVGID_2_">
		<use xlink:href="#SVGID_1_"  style="overflow:visible;"/>
	</clipPath>
	<g class="st3">
		<defs>
			<rect id="SVGID_3_" x="-556.6" y="-2140" width="2770.5" height="3300"/>
		</defs>
		<clipPath id="SVGID_4_">
			<use xlink:href="#SVGID_3_"  style="overflow:visible;"/>
		</clipPath>
	</g>
</g>
<path d="M3,21c0,9.9,8.1,18,18,18c4.2,0,8.1-1.5,11.2-4l25.4,25.4C58,60.8,58.5,61,59,61s1-0.2,1.4-0.6c0.8-0.8,0.8-2,0-2.8L35,32.2
	c2.5-3.1,3.9-7,3.9-11.2c0-9.9-8.1-18-18-18S3,11.1,3,21z M7,21c0-7.7,6.3-14,14-14c7.7,0,14,6.3,14,14s-6.3,14-14,14
	C13.3,35,7,28.7,7,21z"/>
</svg>
